simulation/qsim/alu_4bits.msim.vcd
$comment
	File created using the following command:
		vcd file alu_4bits.msim.vcd -direction
$end
$date
	Mon Sep 18 11:52:40 2023
$end
$version
	ModelSim Version 10.1d
$end
$timescale
	1ps
$end
$scope module alu_4bits_vlg_vec_tst $end
$var reg 4 ! a [3:0] $end
$var reg 4 " b [3:0] $end
$var reg 2 # sel [1:0] $end
$var wire 1 $ y [3] $end
$var wire 1 % y [2] $end
$var wire 1 & y [1] $end
$var wire 1 ' y [0] $end
$var wire 1 ( sampler $end
$scope module i1 $end
$var wire 1 ) gnd $end
$var wire 1 * vcc $end
$var wire 1 + unknown $end
$var tri1 1 , devclrn $end
$var tri1 1 - devpor $end
$var tri1 1 . devoe $end
$var wire 1 / y[0]~output_o $end
$var wire 1 0 y[1]~output_o $end
$var wire 1 1 y[2]~output_o $end
$var wire 1 2 y[3]~output_o $end
$var wire 1 3 sel[1]~input_o $end
$var wire 1 4 sel[0]~input_o $end
$var wire 1 5 a[0]~input_o $end
$var wire 1 6 b[0]~input_o $end
$var wire 1 7 Mux3~0_combout $end
$var wire 1 8 b[1]~input_o $end
$var wire 1 9 a[1]~input_o $end
$var wire 1 : Mux2~0_combout $end
$var wire 1 ; b[2]~input_o $end
$var wire 1 < a[2]~input_o $end
$var wire 1 = Mux1~0_combout $end
$var wire 1 > a[3]~input_o $end
$var wire 1 ? b[3]~input_o $end
$var wire 1 @ Mux0~0_combout $end
$upscope $end
$upscope $end
$enddefinitions $end
#0
$dumpvars
b0 !
b0 "
b0 #
0'
0&
0%
0$
x(
0)
1*
x+
1,
1-
1.
0/
00
01
02
03
04
05
06
07
08
09
0:
0;
0<
0=
0>
0?
0@
$end
#10000
b1 !
b1 "
b1 #
14
16
15
0(
17
1/
1'
#20000
b11 !
b11 "
b11 #
b10 !
b10 "
b10 #
04
13
06
18
05
19
1(
1@
1=
12
11
1$
1%
#30000
b11 !
b11 "
b11 #
14
16
15
0(
07
0/
0'
#40000
b111 !
b111 "
b101 !
b101 "
b1 #
b100 !
b100 "
b0 #
04
03
06
08
1;
05
09
1<
1(
0@
0=
02
01
0$
0%
#50000
b101 !
b101 "
b1 #
14
16
15
0(
1=
17
11
1/
1%
1'
#60000
b111 !
b111 "
b11 #
b110 !
b110 "
b10 #
04
13
06
18
05
19
1(
1@
0=
12
01
1$
0%
#70000
b111 !
b111 "
b11 #
14
16
15
0(
07
0/
0'
#80000
b1111 !
b1111 "
b1011 !
b1011 "
b1001 !
b1001 "
b1 #
b1000 !
b1000 "
b0 #
04
03
06
08
0;
1?
05
09
0<
1>
1(
0@
02
0$
#90000
b1001 !
b1001 "
b1 #
14
16
15
0(
1@
17
12
1/
1$
1'
#100000
b1011 !
b1011 "
b11 #
b1010 !
b1010 "
b10 #
04
13
06
18
05
19
1(
0@
1=
02
11
0$
1%
#110000
b1011 !
b1011 "
b11 #
14
16
15
0(
07
0/
0'
#120000
b1111 !
b1111 "
b1101 !
b1101 "
b1 #
b1100 !
b1100 "
b0 #
04
03
06
08
1;
05
09
1<
1(
0=
01
0%
#130000
b1101 !
b1101 "
b1 #
14
16
15
0(
1@
1=
17
12
11
1/
1$
1%
1'
#140000
b1111 !
b1111 "
b11 #
b1110 !
b1110 "
b10 #
04
13
06
18
05
19
1(
0@
0=
02
01
0$
0%
#150000
b1111 !
b1111 "
b11 #
14
16
15
0(
07
0/
0'
#160000
b111 !
b111 "
b11 !
b11 "
b1 !
b1 "
b1 #
b0 !
b0 "
b0 #
04
03
06
08
0;
0?
05
09
0<
0>
1(
#170000
b1 !
b1 "
b1 #
14
16
15
0(
17
1/
1'
#180000
b11 !
b11 "
b11 #
b10 !
b10 "
b10 #
04
13
06
18
05
19
1(
1@
1=
12
11
1$
1%
#190000
b11 !
b11 "
b11 #
14
16
15
0(
07
0/
0'
#200000
b111 !
b111 "
b101 !
b101 "
b1 #
b100 !
b100 "
b0 #
04
03
06
08
1;
05
09
1<
1(
0@
0=
02
01
0$
0%
#210000
b101 !
b101 "
b1 #
14
16
15
0(
1=
17
11
1/
1%
1'
#220000
b111 !
b111 "
b11 #
b110 !
b110 "
b10 #
04
13
06
18
05
19
1(
1@
0=
12
01
1$
0%
#230000
b111 !
b111 "
b11 #
14
16
15
0(
07
0/
0'
#240000
b1111 !
b1111 "
b1011 !
b1011 "
b1001 !
b1001 "
b1 #
b1000 !
b1000 "
b0 #
04
03
06
08
0;
1?
05
09
0<
1>
1(
0@
02
0$
#250000
b1001 !
b1001 "
b1 #
14
16
15
0(
1@
17
12
1/
1$
1'
#260000
b1011 !
b1011 "
b11 #
b1010 !
b1010 "
b10 #
04
13
06
18
05
19
1(
0@
1=
02
11
0$
1%
#270000
b1011 !
b1011 "
b11 #
14
16
15
0(
07
0/
0'
#280000
b1111 !
b1111 "
b1101 !
b1101 "
b1 #
b1100 !
b1100 "
b0 #
04
03
06
08
1;
05
09
1<
1(
0=
01
0%
#290000
b1101 !
b1101 "
b1 #
14
16
15
0(
1@
1=
17
12
11
1/
1$
1%
1'
#300000
b1111 !
b1111 "
b11 #
b1110 !
b1110 "
b10 #
04
13
06
18
05
19
1(
0@
0=
02
01
0$
0%
#310000
b1111 !
b1111 "
b11 #
14
16
15
0(
07
0/
0'
#320000
b111 !
b111 "
b11 !
b11 "
b1 !
b1 "
b1 #
b0 !
b0 "
b0 #
04
03
06
08
0;
0?
05
09
0<
0>
1(
#330000
b1 !
b1 "
b1 #
14
16
15
0(
17
1/
1'
#340000
b11 !
b11 "
b11 #
b10 !
b10 "
b10 #
04
13
06
18
05
19
1(
1@
1=
12
11
1$
1%
#350000
b11 !
b11 "
b11 #
14
16
15
0(
07
0/
0'
#360000
b111 !
b111 "
b101 !
b101 "
b1 #
b100 !
b100 "
b0 #
04
03
06
08
1;
05
09
1<
1(
0@
0=
02
01
0$
0%
#370000
b101 !
b101 "
b1 #
14
16
15
0(
1=
17
11
1/
1%
1'
#380000
b111 !
b111 "
b11 #
b110 !
b110 "
b10 #
04
13
06
18
05
19
1(
1@
0=
12
01
1$
0%
#390000
b111 !
b111 "
b11 #
14
16
15
0(
07
0/
0'
#400000
b1111 !
b1111 "
b1011 !
b1011 "
b1001 !
b1001 "
b1 #
b1000 !
b1000 "
b0 #
04
03
06
08
0;
1?
05
09
0<
1>
1(
0@
02
0$
#410000
b1001 !
b1001 "
b1 #
14
16
15
0(
1@
17
12
1/
1$
1'
#420000
b1011 !
b1011 "
b11 #
b1010 !
b1010 "
b10 #
04
13
06
18
05
19
1(
0@
1=
02
11
0$
1%
#430000
b1011 !
b1011 "
b11 #
14
16
15
0(
07
0/
0'
#440000
b1111 !
b1111 "
b1101 !
b1101 "
b1 #
b1100 !
b1100 "
b0 #
04
03
06
08
1;
05
09
1<
1(
0=
01
0%
#450000
b1101 !
b1101 "
b1 #
14
16
15
0(
1@
1=
17
12
11
1/
1$
1%
1'
#460000
b1111 !
b1111 "
b11 #
b1110 !
b1110 "
b10 #
04
13
06
18
05
19
1(
0@
0=
02
01
0$
0%
#470000
b1111 !
b1111 "
b11 #
14
16
15
0(
07
0/
0'
#480000
b111 !
b111 "
b11 !
b11 "
b1 !
b1 "
b1 #
b0 !
b0 "
b0 #
04
03
06
08
0;
0?
05
09
0<
0>
1(
#490000
b1 !
b1 "
b1 #
14
16
15
0(
17
1/
1'
#500000
b11 !
b11 "
b11 #
b10 !
b10 "
b10 #
04
13
06
18
05
19
1(
1@
1=
12
11
1$
1%
#510000
b11 !
b11 "
b11 #
14
16
15
0(
07
0/
0'
#520000
b111 !
b111 "
b101 !
b101 "
b1 #
b100 !
b100 "
b0 #
04
03
06
08
1;
05
09
1<
1(
0@
0=
02
01
0$
0%
#530000
b101 !
b101 "
b1 #
14
16
15
0(
1=
17
11
1/
1%
1'
#540000
b111 !
b111 "
b11 #
b110 !
b110 "
b10 #
04
13
06
18
05
19
1(
1@
0=
12
01
1$
0%
#550000
b111 !
b111 "
b11 #
14
16
15
0(
07
0/
0'
#560000
b1111 !
b1111 "
b1011 !
b1011 "
b1001 !
b1001 "
b1 #
b1000 !
b1000 "
b0 #
04
03
06
08
0;
1?
05
09
0<
1>
1(
0@
02
0$
#570000
b1001 !
b1001 "
b1 #
14
16
15
0(
1@
17
12
1/
1$
1'
#580000
b1011 !
b1011 "
b11 #
b1010 !
b1010 "
b10 #
04
13
06
18
05
19
1(
0@
1=
02
11
0$
1%
#590000
b1011 !
b1011 "
b11 #
14
16
15
0(
07
0/
0'
#600000
b1111 !
b1111 "
b1101 !
b1101 "
b1 #
b1100 !
b1100 "
b0 #
04
03
06
08
1;
05
09
1<
1(
0=
01
0%
#610000
b1101 !
b1101 "
b1 #
14
16
15
0(
1@
1=
17
12
11
1/
1$
1%
1'
#620000
b1111 !
b1111 "
b11 #
b1110 !
b1110 "
b10 #
04
13
06
18
05
19
1(
0@
0=
02
01
0$
0%
#630000
b1111 !
b1111 "
b11 #
14
16
15
0(
07
0/
0'
#640000
b111 !
b111 "
b11 !
b11 "
b1 !
b1 "
b1 #
b0 !
b0 "
b0 #
04
03
06
08
0;
0?
05
09
0<
0>
1(
#650000
b1 !
b1 "
b1 #
14
16
15
0(
17
1/
1'
#660000
b11 !
b11 "
b11 #
b10 !
b10 "
b10 #
04
13
06
18
05
19
1(
1@
1=
12
11
1$
1%
#670000
b11 !
b11 "
b11 #
14
16
15
0(
07
0/
0'
#680000
b111 !
b111 "
b101 !
b101 "
b1 #
b100 !
b100 "
b0 #
04
03
06
08
1;
05
09
1<
1(
0@
0=
02
01
0$
0%
#690000
b101 !
b101 "
b1 #
14
16
15
0(
1=
17
11
1/
1%
1'
#700000
b111 !
b111 "
b11 #
b110 !
b110 "
b10 #
04
13
06
18
05
19
1(
1@
0=
12
01
1$
0%
#710000
b111 !
b111 "
b11 #
14
16
15
0(
07
0/
0'
#720000
b1111 !
b1111 "
b1011 !
b1011 "
b1001 !
b1001 "
b1 #
b1000 !
b1000 "
b0 #
04
03
06
08
0;
1?
05
09
0<
1>
1(
0@
02
0$
#730000
b1001 !
b1001 "
b1 #
14
16
15
0(
1@
17
12
1/
1$
1'
#740000
b1011 !
b1011 "
b11 #
b1010 !
b1010 "
b10 #
04
13
06
18
05
19
1(
0@
1=
02
11
0$
1%
#750000
b1011 !
b1011 "
b11 #
14
16
15
0(
07
0/
0'
#760000
b1111 !
b1111 "
b1101 !
b1101 "
b1 #
b1100 !
b1100 "
b0 #
04
03
06
08
1;
05
09
1<
1(
0=
01
0%
#770000
b1101 !
b1101 "
b1 #
14
16
15
0(
1@
1=
17
12
11
1/
1$
1%
1'
#780000
b1111 !
b1111 "
b11 #
b1110 !
b1110 "
b10 #
04
13
06
18
05
19
1(
0@
0=
02
01
0$
0%
#790000
b1111 !
b1111 "
b11 #
14
16
15
0(
07
0/
0'
#800000
b111 !
b111 "
b11 !
b11 "
b1 !
b1 "
b1 #
b0 !
b0 "
b0 #
04
03
06
08
0;
0?
05
09
0<
0>
1(
#810000
b1 !
b1 "
b1 #
14
16
15
0(
17
1/
1'
#820000
b11 !
b11 "
b11 #
b10 !
b10 "
b10 #
04
13
06
18
05
19
1(
1@
1=
12
11
1$
1%
#830000
b11 !
b11 "
b11 #
14
16
15
0(
07
0/
0'
#840000
b111 !
b111 "
b101 !
b101 "
b1 #
b100 !
b100 "
b0 #
04
03
06
08
1;
05
09
1<
1(
0@
0=
02
01
0$
0%
#850000
b101 !
b101 "
b1 #
14
16
15
0(
1=
17
11
1/
1%
1'
#860000
b111 !
b111 "
b11 #
b110 !
b110 "
b10 #
04
13
06
18
05
19
1(
1@
0=
12
01
1$
0%
#870000
b111 !
b111 "
b11 #
14
16
15
0(
07
0/
0'
#880000
b1111 !
b1111 "
b1011 !
b1011 "
b1001 !
b1001 "
b1 #
b1000 !
b1000 "
b0 #
04
03
06
08
0;
1?
05
09
0<
1>
1(
0@
02
0$
#890000
b1001 !
b1001 "
b1 #
14
16
15
0(
1@
17
12
1/
1$
1'
#900000
b1011 !
b1011 "
b11 #
b1010 !
b1010 "
b10 #
04
13
06
18
05
19
1(
0@
1=
02
11
0$
1%
#910000
b1011 !
b1011 "
b11 #
14
16
15
0(
07
0/
0'
#920000
b1111 !
b1111 "
b1101 !
b1101 "
b1 #
b1100 !
b1100 "
b0 #
04
03
06
08
1;
05
09
1<
1(
0=
01
0%
#930000
b1101 !
b1101 "
b1 #
14
16
15
0(
1@
1=
17
12
11
1/
1$
1%
1'
#940000
b1111 !
b1111 "
b11 #
b1110 !
b1110 "
b10 #
04
13
06
18
05
19
1(
0@
0=
02
01
0$
0%
#950000
b1111 !
b1111 "
b11 #
14
16
15
0(
07
0/
0'
#960000
b111 !
b111 "
b11 !
b11 "
b1 !
b1 "
b1 #
b0 !
b0 "
b0 #
04
03
06
08
0;
0?
05
09
0<
0>
1(
#970000
b1 !
b1 "
b1 #
14
16
15
0(
17
1/
1'
#980000
b11 !
b11 "
b11 #
b10 !
b10 "
b10 #
04
13
06
18
05
19
1(
1@
1=
12
11
1$
1%
#990000
b11 !
b11 "
b11 #
14
16
15
0(
07
0/
0'
